{

    "cardLayout": [{
            "name": "BIO",
            "type": 0,
            "io": [
                { "label": "0In1", "id": 0 },
                { "label": "0In2", "id": 1 },
                { "label": "0In3", "id": 2 },
                { "label": "0In4", "id": 3 },
                { "label": "0In5", "id": 4 },
                { "label": "0In6", "id": 5 },
                { "label": "0In7", "id": 6 },
                { "label": "0In8", "id": 7 },
                { "label": "0In9", "id": 8 },
                { "label": "0In10", "id": 9 }
            ]
        },
        {
            "name": "BI",
            "type": 1,
            "io": [
                { "label": "1In1", "id": 0 },
                { "label": "1In2", "id": 1 },
                { "label": "1In3", "id": 2 }
            ]
        }
    ],

    "services": [
        { "name": "voltage measure", "id": 0 },
        { "name": "current measure", "id": 1 },
        { "name": "power measure", "id": 2 }
    ],

    "slaves": [

        {
            "slaveId": "slave_gio_600_203431463056500d003a002e",
            "status": 0,
            "presentInDb": true,
            "cards": [
                { "type": 0, "serial": 1234, "state": 0 },
                { "type": 0, "serial": 4321, "state": 0 },
                { "type": 0, "serial": 5678, "state": 0 },
                { "type": 0, "serial": 8765, "state": 1 },
                { "type": 1, "serial": 1010, "state": 0 },
                { "type": 1, "serial": 1111, "state": 0 }
            ]

        },
        {
            "slaveId": "slave_gio_600_203431463056500d003a002f",
            "status": 1,
            "presentInDb": true,
            "cards": [
                { "type": 0, "serial": 1212, "state": 0 },
                { "type": 1, "serial": 1313, "state": 0 }
            ]
        },
        {
            "slaveId": "slave_gio_600_203431463056500d003a002a",
            "status": 0,
            "presentInDb": false,
            "cards": [
                { "type": 1, "serial": 1414, "state": 0 },
                { "type": 1, "serial": 1515, "state": 0 }
            ]
        }
    ]




}